…
  group_by(dest) %>% 
  summarise(distance_sd = sd(distance)) %>% 
  arrange(desc(distance_sd))
```
# measures of rank: min(x), quantile(x, 0.25), max(x). quantiles are a generalisation of the median. ex above will find a value that is greater than 25% of the values and less than the remaining 75% (whereas median is at the 50% mark)
```{r}
# When do the first and last flights leave each day?
not_cancelled %>% 
  group_by(year, month, day) %>% 
  summarise(
    first = min(dep_time),
    last = max(dep_time)
  )
#> `summarise()` regrouping output by 'year', 'month' (override with `.groups` argument)
#> # A tibble: 365 x 5
#> # Groups:   year, month [12]
#>    year month   day first  last
#>   <int> <int> <int> <int> <int>
#> 1  2013     1     1   517  2356
#> 2  2013     1     2    42  2354
#> 3  2013     1     3    32  2349
#> 4  2013     1     4    25  2358
#> 5  2013     1     5    14  2357
#> 6  2013     1     6    16  2355
#> # … with 359 more rows
```
…
